{
  "data": [
    {
      "id": "l3zrrq",
      "url": "https://wallhaven.cc/w/l3zrrq",
      "short_url": "https://whvn.cc/l3zrrq",
      "views": 7,
      "favorites": 1,
      "source": "https://www.artstation.com/artwork/lxW8B5",
      "purity": "sfw",
      "category": "general",
      "dimension_x": 3840,
      "dimension_y": 2160,
      "resolution": "3840x2160",
      "ratio": "1.78",
      "file_size": 4111416,
      "file_type": "image/jpeg",
      "created_at": "2021-06-03 09:58:31",
      "colors": [
        "#000000",
        "#424153",
        "#663300",
        "#999999",
        "#660000"
      ],
      "path": "https://w.wallhaven.cc/full/l3/wallhaven-l3zrrq.jpg",
      "thumbs": {
        "large": "https://th.wallhaven.cc/lg/l3/l3zrrq.jpg",
        "original": "https://th.wallhaven.cc/orig/l3/l3zrrq.jpg",
        "small": "https://th.wallhaven.cc/small/l3/l3zrrq.jpg"
      }
    },
    {
      "id": "v9z328",
      "url": "https://wallhaven.cc/w/v9z328",
      "short_url": "https://whvn.cc/v9z328",
      "views": 11,
      "favorites": 12,
      "source": "",
      "purity": "sfw",
      "category": "anime",
      "dimension_x": 2200,
      "dimension_y": 1552,
      "resolution": "2200x1552",
      "ratio": "1.42",
      "file_size": 3246529,
      "file_type": "image/png",
      "created_at": "2021-06-03 09:20:08",
      "colors": [
        "#424153",
        "#999999",
        "#cccccc",
        "#ffffff",
        "#abbcda"
      ],
      "path": "https://w.wallhaven.cc/full/v9/wallhaven-v9z328.png",
      "thumbs": {
        "large": "https://th.wallhaven.cc/lg/v9/v9z328.jpg",
        "original": "https://th.wallhaven.cc/orig/v9/v9z328.jpg",
        "small": "https://th.wallhaven.cc/small/v9/v9z328.jpg"
      }
    },
    {
      "id": "28zj6m",
      "url": "https://wallhaven.cc/w/28zj6m",
      "short_url": "https://whvn.cc/28zj6m",
      "views": 135,
      "favorites": 9,
      "source": "",
      "purity": "sfw",
      "category": "anime",
      "dimension_x": 2500,
      "dimension_y": 1875,
      "resolution": "2500x1875",
      "ratio": "1.33",
      "file_size": 3402950,
      "file_type": "image/jpeg",
      "created_at": "2021-06-03 09:13:17",
      "colors": [
        "#424153",
        "#999999",
        "#996633",
        "#663399",
        "#000000"
      ],
      "path": "https://w.wallhaven.cc/full/28/wallhaven-28zj6m.jpg",
      "thumbs": {
        "large": "https://th.wallhaven.cc/lg/28/28zj6m.jpg",
        "original": "https://th.wallhaven.cc/orig/28/28zj6m.jpg",
        "small": "https://th.wallhaven.cc/small/28/28zj6m.jpg"
      }
    },
    {
      "id": "wq1w37",
      "url": "https://wallhaven.cc/w/wq1w37",
      "short_url": "https://whvn.cc/wq1w37",
      "views": 102,
      "favorites": 8,
      "source": "https://www.pixiv.net/en/artworks/89422268",
      "purity": "sfw",
      "category": "anime",
      "dimension_x": 3617,
      "dimension_y": 2432,
      "resolution": "3617x2432",
      "ratio": "1.49",
      "file_size": 7847137,
      "file_type": "image/png",
      "created_at": "2021-06-03 09:11:44",
      "colors": [
        "#fdadc7",
        "#cccccc",
        "#abbcda",
        "#e7d8b1",
        "#ffffff"
      ],
      "path": "https://w.wallhaven.cc/full/wq/wallhaven-wq1w37.png",
      "thumbs": {
        "large": "https://th.wallhaven.cc/lg/wq/wq1w37.jpg",
        "original": "https://th.wallhaven.cc/orig/wq/wq1w37.jpg",
        "small": "https://th.wallhaven.cc/small/wq/wq1w37.jpg"
      }
    },
    {
      "id": "rdgwe1",
      "url": "https://wallhaven.cc/w/rdgwe1",
      "short_url": "https://whvn.cc/rdgwe1",
      "views": 111,
      "favorites": 3,
      "source": "",
      "purity": "sfw",
      "category": "anime",
      "dimension_x": 1978,
      "dimension_y": 1064,
      "resolution": "1978x1064",
      "ratio": "1.86",
      "file_size": 1477909,
      "file_type": "image/jpeg",
      "created_at": "2021-06-03 09:07:08",
      "colors": [
        "#663300",
        "#996633",
        "#000000",
        "#424153",
        "#999999"
      ],
      "path": "https://w.wallhaven.cc/full/rd/wallhaven-rdgwe1.jpg",
      "thumbs": {
        "large": "https://th.wallhaven.cc/lg/rd/rdgwe1.jpg",
        "original": "https://th.wallhaven.cc/orig/rd/rdgwe1.jpg",
        "small": "https://th.wallhaven.cc/small/rd/rdgwe1.jpg"
      }
    },
    {
      "id": "k7zrj6",
      "url": "https://wallhaven.cc/w/k7zrj6",
      "short_url": "https://whvn.cc/k7zrj6",
      "views": 180,
      "favorites": 4,
      "source": "",
      "purity": "sfw",
      "category": "general",
      "dimension_x": 4000,
      "dimension_y": 2500,
      "resolution": "4000x2500",
      "ratio": "1.6",
      "file_size": 10033549,
      "file_type": "image/png",
      "created_at": "2021-06-03 08:28:19",
      "colors": [
        "#000000",
        "#424153",
        "#e7d8b1",
        "#999999",
        "#cccccc"
      ],
      "path": "https://w.wallhaven.cc/full/k7/wallhaven-k7zrj6.png",
      "thumbs": {
        "large": "https://th.wallhaven.cc/lg/k7/k7zrj6.jpg",
        "original": "https://th.wallhaven.cc/orig/k7/k7zrj6.jpg",
        "small": "https://th.wallhaven.cc/small/k7/k7zrj6.jpg"
      }
    },
    {
      "id": "1k1low",
      "url": "https://wallhaven.cc/w/1k1low",
      "short_url": "https://whvn.cc/1k1low",
      "views": 94,
      "favorites": 3,
      "source": "",
      "purity": "sfw",
      "category": "general",
      "dimension_x": 4000,
      "dimension_y": 2500,
      "resolution": "4000x2500",
      "ratio": "1.6",
      "file_size": 2768850,
      "file_type": "image/png",
      "created_at": "2021-06-03 08:24:43",
      "colors": [
        "#000000",
        "#424153",
        "#e7d8b1",
        "#cccccc",
        "#999999"
      ],
      "path": "https://w.wallhaven.cc/full/1k/wallhaven-1k1low.png",
      "thumbs": {
        "large": "https://th.wallhaven.cc/lg/1k/1k1low.jpg",
        "original": "https://th.wallhaven.cc/orig/1k/1k1low.jpg",
        "small": "https://th.wallhaven.cc/small/1k/1k1low.jpg"
      }
    },
    {
      "id": "8oepjj",
      "url": "https://wallhaven.cc/w/8oepjj",
      "short_url": "https://whvn.cc/8oepjj",
      "views": 360,
      "favorites": 11,
      "source": "",
      "purity": "sfw",
      "category": "anime",
      "dimension_x": 2000,
      "dimension_y": 4000,
      "resolution": "2000x4000",
      "ratio": "0.5",
      "file_size": 2915372,
      "file_type": "image/jpeg",
      "created_at": "2021-06-03 05:29:47",
      "colors": [
        "#424153",
        "#000000",
        "#66cccc",
        "#e7d8b1",
        "#ffffff"
      ],
      "path": "https://w.wallhaven.cc/full/8o/wallhaven-8oepjj.jpg",
      "thumbs": {
        "large": "https://th.wallhaven.cc/lg/8o/8oepjj.jpg",
        "original": "https://th.wallhaven.cc/orig/8o/8oepjj.jpg",
        "small": "https://th.wallhaven.cc/small/8o/8oepjj.jpg"
      }
    },
    {
      "id": "z8z29v",
      "url": "https://wallhaven.cc/w/z8z29v",
      "short_url": "https://whvn.cc/z8z29v",
      "views": 288,
      "favorites": 9,
      "source": "",
      "purity": "sfw",
      "category": "general",
      "dimension_x": 3508,
      "dimension_y": 4385,
      "resolution": "3508x4385",
      "ratio": "0.8",
      "file_size": 5924793,
      "file_type": "image/png",
      "created_at": "2021-06-03 05:29:47",
      "colors": [
        "#ffffff",
        "#e7d8b1",
        "#66cccc",
        "#000000",
        "#999999"
      ],
      "path": "https://w.wallhaven.cc/full/z8/wallhaven-z8z29v.png",
      "thumbs": {
        "large": "https://th.wallhaven.cc/lg/z8/z8z29v.jpg",
        "original": "https://th.wallhaven.cc/orig/z8/z8z29v.jpg",
        "small": "https://th.wallhaven.cc/small/z8/z8z29v.jpg"
      }
    },
    {
      "id": "m9zrg1",
      "url": "https://wallhaven.cc/w/m9zrg1",
      "short_url": "https://whvn.cc/m9zrg1",
      "views": 624,
      "favorites": 40,
      "source": "",
      "purity": "sfw",
      "category": "anime",
      "dimension_x": 1248,
      "dimension_y": 2329,
      "resolution": "1248x2329",
      "ratio": "0.54",
      "file_size": 1390917,
      "file_type": "image/png",
      "created_at": "2021-06-03 03:37:23",
      "colors": [
        "#ffffff",
        "#424153",
        "#000000",
        "#e7d8b1",
        "#cccccc"
      ],
      "path": "https://w.wallhaven.cc/full/m9/wallhaven-m9zrg1.png",
      "thumbs": {
        "large": "https://th.wallhaven.cc/lg/m9/m9zrg1.jpg",
        "original": "https://th.wallhaven.cc/orig/m9/m9zrg1.jpg",
        "small": "https://th.wallhaven.cc/small/m9/m9zrg1.jpg"
      }
    }
  ],
  "meta": {
    "current_page": 1,
    "last_page": 14661,
    "per_page": 10,
    "total": 351855,
    "query": null,
    "seed": null
  }
}