{
  "data": [
    {
      "id": "l3zrrq",
      "url": "https://wallhaven.cc/w/l3zrrq",
      "short_url": "https://whvn.cc/l3zrrq",
      "views": 7,
      "favorites": 1,
      "source": "https://www.artstation.com/artwork/lxW8B5",
      "purity": "sfw",
      "category": "general",
      "dimension_x": 3840,
      "dimension_y": 2160,
      "resolution": "3840x2160",
      "ratio": "1.78",
      "file_size": 4111416,
      "file_type": "image/jpeg",
      "created_at": "2021-06-03 09:58:31",
      "colors": [
        "#000000",
        "#424153",
        "#663300",
        "#999999",
        "#660000"
      ],
      "path": "https://w.wallhaven.cc/full/l3/wallhaven-l3zrrq.jpg",
      "thumbs": {
        "large": "https://th.wallhaven.cc/lg/l3/l3zrrq.jpg",
        "original": "https://th.wallhaven.cc/orig/l3/l3zrrq.jpg",
        "small": "https://th.wallhaven.cc/small/l3/l3zrrq.jpg"
      }
    },
    {
      "id": "v9z328",
      "url": "https://wallhaven.cc/w/v9z328",
      "short_url": "https://whvn.cc/v9z328",
      "views": 11,
      "favorites": 12,
      "source": "",
      "purity": "sfw",
      "category": "anime",
      "dimension_x": 2200,
      "dimension_y": 1552,
      "resolution": "2200x1552",
      "ratio": "1.42",
      "file_size": 3246529,
      "file_type": "image/png",
      "created_at": "2021-06-03 09:20:08",
      "colors": [
        "#424153",
        "#999999",
        "#cccccc",
        "#ffffff",
        "#abbcda"
      ],
      "path": "https://w.wallhaven.cc/full/v9/wallhaven-v9z328.png",
      "thumbs": {
        "large": "https://th.wallhaven.cc/lg/v9/v9z328.jpg",
        "original": "https://th.wallhaven.cc/orig/v9/v9z328.jpg",
        "small": "https://th.wallhaven.cc/small/v9/v9z328.jpg"
      }
    },
    {
      "id": "28zj6m",
      "url": "https://wallhaven.cc/w/28zj6m",
      "short_url": "https://whvn.cc/28zj6m",
      "views": 135,
      "favorites": 9,
      "source": "",
      "purity": "sfw",
      "category": "anime",
      "dimension_x": 2500,
      "dimension_y": 1875,
      "resolution": "2500x1875",
      "ratio": "1.33",
      "file_size": 3402950,
      "file_type": "image/jpeg",
      "created_at": "2021-06-03 09:13:17",
      "colors": [
        "#424153",
        "#999999",
        "#996633",
        "#663399",
        "#000000"
      ],
      "path": "https://w.wallhaven.cc/full/28/wallhaven-28zj6m.jpg",
      "thumbs": {
        "large": "https://th.wallhaven.cc/lg/28/28zj6m.jpg",
        "original": "https://th.wallhaven.cc/orig/28/28zj6m.jpg",
        "small": "https://th.wallhaven.cc/small/28/28zj6m.jpg"
      }
    },
    {
      "id": "wq1w37",
      "url": "https://wallhaven.cc/w/wq1w37",
      "short_url": "https://whvn.cc/wq1w37",
      "views": 102,
      "favorites": 8,
      "source": "https://www.pixiv.net/en/artworks/89422268",
      "purity": "sfw",
      "category": "anime",
      "dimension_x": 3617,
      "dimension_y": 2432,
      "resolution": "3617x2432",
      "ratio": "1.49",
      "file_size": 7847137,
      "file_type": "image/png",
      "created_at": "2021-06-03 09:11:44",
      "colors": [
        "#fdadc7",
        "#cccccc",
        "#abbcda",
        "#e7d8b1",
        "#ffffff"
      ],
      "path": "https://w.wallhaven.cc/full/wq/wallhaven-wq1w37.png",
      "thumbs": {
        "large": "https://th.wallhaven.cc/lg/wq/wq1w37.jpg",
        "original": "https://th.wallhaven.cc/orig/wq/wq1w37.jpg",
        "small": "https://th.wallhaven.cc/small/wq/wq1w37.jpg"
      }
    },
    {
      "id": "rdgwe1",
      "url": "https://wallhaven.cc/w/rdgwe1",
      "short_url": "https://whvn.cc/rdgwe1",
      "views": 111,
      "favorites": 3,
      "source": "",
      "purity": "sfw",
      "category": "anime",
      "dimension_x": 1978,
      "dimension_y": 1064,
      "resolution": "1978x1064",
      "ratio": "1.86",
      "file_size": 1477909,
      "file_type": "image/jpeg",
      "created_at": "2021-06-03 09:07:08",
      "colors": [
        "#663300",
        "#996633",
        "#000000",
        "#424153",
        "#999999"
      ],
      "path": "https://w.wallhaven.cc/full/rd/wallhaven-rdgwe1.jpg",
      "thumbs": {
        "large": "https://th.wallhaven.cc/lg/rd/rdgwe1.jpg",
        "original": "https://th.wallhaven.cc/orig/rd/rdgwe1.jpg",
        "small": "https://th.wallhaven.cc/small/rd/rdgwe1.jpg"
      }
    },
    {
      "id": "k7zrj6",
      "url": "https://wallhaven.cc/w/k7zrj6",
      "short_url": "https://whvn.cc/k7zrj6",
      "views": 180,
      "favorites": 4,
      "source": "",
      "purity": "sfw",
      "category": "general",
      "dimension_x": 4000,
      "dimension_y": 2500,
      "resolution": "4000x2500",
      "ratio": "1.6",
      "file_size": 10033549,
      "file_type": "image/png",
      "created_at": "2021-06-03 08:28:19",
      "colors": [
        "#000000",
        "#424153",
        "#e7d8b1",
        "#999999",
        "#cccccc"
      ],
      "path": "https://w.wallhaven.cc/full/k7/wallhaven-k7zrj6.png",
      "thumbs": {
        "large": "https://th.wallhaven.cc/lg/k7/k7zrj6.jpg",
        "original": "https://th.wallhaven.cc/orig/k7/k7zrj6.jpg",
        "small": "https://th.wallhaven.cc/small/k7/k7zrj6.jpg"
      }
    },
    {
      "id": "1k1low",
      "url": "https://wallhaven.cc/w/1k1low",
      "short_url": "https://whvn.cc/1k1low",
      "views": 94,
      "favorites": 3,
      "source": "",
      "purity": "sfw",
      "category": "general",
      "dimension_x": 4000,
      "dimension_y": 2500,
      "resolution": "4000x2500",
      "ratio": "1.6",
      "file_size": 2768850,
      "file_type": "image/png",
      "created_at": "2021-06-03 08:24:43",
      "colors": [
        "#000000",
        "#424153",
        "#e7d8b1",
        "#cccccc",
        "#999999"
      ],
      "path": "https://w.wallhaven.cc/full/1k/wallhaven-1k1low.png",
      "thumbs": {
        "large": "https://th.wallhaven.cc/lg/1k/1k1low.jpg",
        "original": "https://th.wallhaven.cc/orig/1k/1k1low.jpg",
        "small": "https://th.wallhaven.cc/small/1k/1k1low.jpg"
      }
    },
    {
      "id": "8oepjj",
      "url": "https://wallhaven.cc/w/8oepjj",
      "short_url": "https://whvn.cc/8oepjj",
      "views": 360,
      "favorites": 11,
      "source": "",
      "purity": "sfw",
      "category": "anime",
      "dimension_x": 2000,
      "dimension_y": 4000,
      "resolution": "2000x4000",
      "ratio": "0.5",
      "file_size": 2915372,
      "file_type": "image/jpeg",
      "created_at": "2021-06-03 05:29:47",
      "colors": [
        "#424153",
        "#000000",
        "#66cccc",
        "#e7d8b1",
        "#ffffff"
      ],
      "path": "https://w.wallhaven.cc/full/8o/wallhaven-8oepjj.jpg",
      "thumbs": {
        "large": "https://th.wallhaven.cc/lg/8o/8oepjj.jpg",
        "original": "https://th.wallhaven.cc/orig/8o/8oepjj.jpg",
        "small": "https://th.wallhaven.cc/small/8o/8oepjj.jpg"
      }
    },
    {
      "id": "z8z29v",
      "url": "https://wallhaven.cc/w/z8z29v",
      "short_url": "https://whvn.cc/z8z29v",
      "views": 288,
      "favorites": 9,
      "source": "",
      "purity": "sfw",
      "category": "general",
      "dimension_x": 3508,
      "dimension_y": 4385,
      "resolution": "3508x4385",
      "ratio": "0.8",
      "file_size": 5924793,
      "file_type": "image/png",
      "created_at": "2021-06-03 05:29:47",
      "colors": [
        "#ffffff",
        "#e7d8b1",
        "#66cccc",
        "#000000",
        "#999999"
      ],
      "path": "https://w.wallhaven.cc/full/z8/wallhaven-z8z29v.png",
      "thumbs": {
        "large": "https://th.wallhaven.cc/lg/z8/z8z29v.jpg",
        "original": "https://th.wallhaven.cc/orig/z8/z8z29v.jpg",
        "small": "https://th.wallhaven.cc/small/z8/z8z29v.jpg"
      }
    },
    {
      "id": "m9zrg1",
      "url": "https://wallhaven.cc/w/m9zrg1",
      "short_url": "https://whvn.cc/m9zrg1",
      "views": 624,
      "favorites": 40,
      "source": "",
      "purity": "sfw",
      "category": "anime",
      "dimension_x": 1248,
      "dimension_y": 2329,
      "resolution": "1248x2329",
      "ratio": "0.54",
      "file_size": 1390917,
      "file_type": "image/png",
      "created_at": "2021-06-03 03:37:23",
      "colors": [
        "#ffffff",
        "#424153",
        "#000000",
        "#e7d8b1",
        "#cccccc"
      ],
      "path": "https://w.wallhaven.cc/full/m9/wallhaven-m9zrg1.png",
      "thumbs": {
        "large": "https://th.wallhaven.cc/lg/m9/m9zrg1.jpg",
        "original": "https://th.wallhaven.cc/orig/m9/m9zrg1.jpg",
        "small": "https://th.wallhaven.cc/small/m9/m9zrg1.jpg"
      }
    },
    {
      "id": "e73r6w",
      "url": "https://wallhaven.cc/w/e73r6w",
      "short_url": "https://whvn.cc/e73r6w",
      "views": 364,
      "favorites": 18,
      "source": "",
      "purity": "sfw",
      "category": "anime",
      "dimension_x": 1917,
      "dimension_y": 2941,
      "resolution": "1917x2941",
      "ratio": "0.65",
      "file_size": 2937661,
      "file_type": "image/png",
      "created_at": "2021-06-03 03:37:23",
      "colors": [
        "#ffffff",
        "#999999",
        "#e7d8b1",
        "#cccccc",
        "#424153"
      ],
      "path": "https://w.wallhaven.cc/full/e7/wallhaven-e73r6w.png",
      "thumbs": {
        "large": "https://th.wallhaven.cc/lg/e7/e73r6w.jpg",
        "original": "https://th.wallhaven.cc/orig/e7/e73r6w.jpg",
        "small": "https://th.wallhaven.cc/small/e7/e73r6w.jpg"
      }
    },
    {
      "id": "y85w27",
      "url": "https://wallhaven.cc/w/y85w27",
      "short_url": "https://whvn.cc/y85w27",
      "views": 340,
      "favorites": 1,
      "source": "",
      "purity": "sfw",
      "category": "general",
      "dimension_x": 4028,
      "dimension_y": 2474,
      "resolution": "4028x2474",
      "ratio": "1.63",
      "file_size": 2737611,
      "file_type": "image/jpeg",
      "created_at": "2021-06-03 02:28:35",
      "colors": [
        "#000000",
        "#424153",
        "#999999",
        "#66cccc",
        "#336600"
      ],
      "path": "https://w.wallhaven.cc/full/y8/wallhaven-y85w27.jpg",
      "thumbs": {
        "large": "https://th.wallhaven.cc/lg/y8/y85w27.jpg",
        "original": "https://th.wallhaven.cc/orig/y8/y85w27.jpg",
        "small": "https://th.wallhaven.cc/small/y8/y85w27.jpg"
      }
    },
    {
      "id": "g75v23",
      "url": "https://wallhaven.cc/w/g75v23",
      "short_url": "https://whvn.cc/g75v23",
      "views": 240,
      "favorites": 3,
      "source": "",
      "purity": "sfw",
      "category": "general",
      "dimension_x": 6867,
      "dimension_y": 5350,
      "resolution": "6867x5350",
      "ratio": "1.28",
      "file_size": 708257,
      "file_type": "image/jpeg",
      "created_at": "2021-06-03 02:02:15",
      "colors": [
        "#000000",
        "#663300",
        "#cc6633",
        "#e7d8b1",
        "#ffcc33"
      ],
      "path": "https://w.wallhaven.cc/full/g7/wallhaven-g75v23.jpg",
      "thumbs": {
        "large": "https://th.wallhaven.cc/lg/g7/g75v23.jpg",
        "original": "https://th.wallhaven.cc/orig/g7/g75v23.jpg",
        "small": "https://th.wallhaven.cc/small/g7/g75v23.jpg"
      }
    },
    {
      "id": "l3zr2l",
      "url": "https://wallhaven.cc/w/l3zr2l",
      "short_url": "https://whvn.cc/l3zr2l",
      "views": 137,
      "favorites": 0,
      "source": "",
      "purity": "sfw",
      "category": "general",
      "dimension_x": 1920,
      "dimension_y": 1080,
      "resolution": "1920x1080",
      "ratio": "1.78",
      "file_size": 660786,
      "file_type": "image/jpeg",
      "created_at": "2021-06-03 01:56:16",
      "colors": [
        "#000000",
        "#424153",
        "#999999",
        "#996633",
        "#663300"
      ],
      "path": "https://w.wallhaven.cc/full/l3/wallhaven-l3zr2l.jpg",
      "thumbs": {
        "large": "https://th.wallhaven.cc/lg/l3/l3zr2l.jpg",
        "original": "https://th.wallhaven.cc/orig/l3/l3zr2l.jpg",
        "small": "https://th.wallhaven.cc/small/l3/l3zr2l.jpg"
      }
    },
    {
      "id": "y85wvd",
      "url": "https://wallhaven.cc/w/y85wvd",
      "short_url": "https://whvn.cc/y85wvd",
      "views": 156,
      "favorites": 1,
      "source": "",
      "purity": "sfw",
      "category": "general",
      "dimension_x": 1920,
      "dimension_y": 1080,
      "resolution": "1920x1080",
      "ratio": "1.78",
      "file_size": 409531,
      "file_type": "image/jpeg",
      "created_at": "2021-06-03 01:56:16",
      "colors": [
        "#424153",
        "#000000",
        "#999999",
        "#996633",
        "#663399"
      ],
      "path": "https://w.wallhaven.cc/full/y8/wallhaven-y85wvd.jpg",
      "thumbs": {
        "large": "https://th.wallhaven.cc/lg/y8/y85wvd.jpg",
        "original": "https://th.wallhaven.cc/orig/y8/y85wvd.jpg",
        "small": "https://th.wallhaven.cc/small/y8/y85wvd.jpg"
      }
    },
    {
      "id": "j3wrvm",
      "url": "https://wallhaven.cc/w/j3wrvm",
      "short_url": "https://whvn.cc/j3wrvm",
      "views": 200,
      "favorites": 0,
      "source": "",
      "purity": "sfw",
      "category": "general",
      "dimension_x": 1920,
      "dimension_y": 1080,
      "resolution": "1920x1080",
      "ratio": "1.78",
      "file_size": 800400,
      "file_type": "image/jpeg",
      "created_at": "2021-06-03 01:56:16",
      "colors": [
        "#424153",
        "#000000",
        "#999999",
        "#996633",
        "#663399"
      ],
      "path": "https://w.wallhaven.cc/full/j3/wallhaven-j3wrvm.jpg",
      "thumbs": {
        "large": "https://th.wallhaven.cc/lg/j3/j3wrvm.jpg",
        "original": "https://th.wallhaven.cc/orig/j3/j3wrvm.jpg",
        "small": "https://th.wallhaven.cc/small/j3/j3wrvm.jpg"
      }
    },
    {
      "id": "3z3grv",
      "url": "https://wallhaven.cc/w/3z3grv",
      "short_url": "https://whvn.cc/3z3grv",
      "views": 192,
      "favorites": 2,
      "source": "",
      "purity": "sfw",
      "category": "general",
      "dimension_x": 1920,
      "dimension_y": 1080,
      "resolution": "1920x1080",
      "ratio": "1.78",
      "file_size": 256286,
      "file_type": "image/jpeg",
      "created_at": "2021-06-03 01:56:16",
      "colors": [
        "#424153",
        "#663399",
        "#999999",
        "#000000",
        "#abbcda"
      ],
      "path": "https://w.wallhaven.cc/full/3z/wallhaven-3z3grv.jpg",
      "thumbs": {
        "large": "https://th.wallhaven.cc/lg/3z/3z3grv.jpg",
        "original": "https://th.wallhaven.cc/orig/3z/3z3grv.jpg",
        "small": "https://th.wallhaven.cc/small/3z/3z3grv.jpg"
      }
    },
    {
      "id": "57z6r9",
      "url": "https://wallhaven.cc/w/57z6r9",
      "short_url": "https://whvn.cc/57z6r9",
      "views": 146,
      "favorites": 0,
      "source": "",
      "purity": "sfw",
      "category": "general",
      "dimension_x": 1920,
      "dimension_y": 1080,
      "resolution": "1920x1080",
      "ratio": "1.78",
      "file_size": 373809,
      "file_type": "image/jpeg",
      "created_at": "2021-06-03 01:56:16",
      "colors": [
        "#000000",
        "#424153",
        "#999999",
        "#663399",
        "#abbcda"
      ],
      "path": "https://w.wallhaven.cc/full/57/wallhaven-57z6r9.jpg",
      "thumbs": {
        "large": "https://th.wallhaven.cc/lg/57/57z6r9.jpg",
        "original": "https://th.wallhaven.cc/orig/57/57z6r9.jpg",
        "small": "https://th.wallhaven.cc/small/57/57z6r9.jpg"
      }
    },
    {
      "id": "28zj3x",
      "url": "https://wallhaven.cc/w/28zj3x",
      "short_url": "https://whvn.cc/28zj3x",
      "views": 415,
      "favorites": 7,
      "source": "https://www.artstation.com/artwork/Po42mr",
      "purity": "sfw",
      "category": "general",
      "dimension_x": 3113,
      "dimension_y": 5096,
      "resolution": "3113x5096",
      "ratio": "0.61",
      "file_size": 1486866,
      "file_type": "image/jpeg",
      "created_at": "2021-06-03 01:48:15",
      "colors": [
        "#ffffff",
        "#424153",
        "#999999",
        "#cccccc",
        "#000000"
      ],
      "path": "https://w.wallhaven.cc/full/28/wallhaven-28zj3x.jpg",
      "thumbs": {
        "large": "https://th.wallhaven.cc/lg/28/28zj3x.jpg",
        "original": "https://th.wallhaven.cc/orig/28/28zj3x.jpg",
        "small": "https://th.wallhaven.cc/small/28/28zj3x.jpg"
      }
    },
    {
      "id": "q2j5ll",
      "url": "https://wallhaven.cc/w/q2j5ll",
      "short_url": "https://whvn.cc/q2j5ll",
      "views": 310,
      "favorites": 9,
      "source": "",
      "purity": "sfw",
      "category": "anime",
      "dimension_x": 2271,
      "dimension_y": 1702,
      "resolution": "2271x1702",
      "ratio": "1.33",
      "file_size": 3569042,
      "file_type": "image/png",
      "created_at": "2021-06-03 00:51:48",
      "colors": [
        "#66cccc",
        "#ffffff",
        "#abbcda",
        "#999999",
        "#333399"
      ],
      "path": "https://w.wallhaven.cc/full/q2/wallhaven-q2j5ll.png",
      "thumbs": {
        "large": "https://th.wallhaven.cc/lg/q2/q2j5ll.jpg",
        "original": "https://th.wallhaven.cc/orig/q2/q2j5ll.jpg",
        "small": "https://th.wallhaven.cc/small/q2/q2j5ll.jpg"
      }
    },
    {
      "id": "z8z25o",
      "url": "https://wallhaven.cc/w/z8z25o",
      "short_url": "https://whvn.cc/z8z25o",
      "views": 356,
      "favorites": 15,
      "source": "",
      "purity": "sfw",
      "category": "anime",
      "dimension_x": 2160,
      "dimension_y": 3840,
      "resolution": "2160x3840",
      "ratio": "0.56",
      "file_size": 2214541,
      "file_type": "image/jpeg",
      "created_at": "2021-06-03 00:46:26",
      "colors": [
        "#424153",
        "#000000",
        "#993399",
        "#999999",
        "#ea4c88"
      ],
      "path": "https://w.wallhaven.cc/full/z8/wallhaven-z8z25o.jpg",
      "thumbs": {
        "large": "https://th.wallhaven.cc/lg/z8/z8z25o.jpg",
        "original": "https://th.wallhaven.cc/orig/z8/z8z25o.jpg",
        "small": "https://th.wallhaven.cc/small/z8/z8z25o.jpg"
      }
    },
    {
      "id": "x8zwpz",
      "url": "https://wallhaven.cc/w/x8zwpz",
      "short_url": "https://whvn.cc/x8zwpz",
      "views": 226,
      "favorites": 4,
      "source": "https://35photo.pro/photo_6143396/",
      "purity": "sfw",
      "category": "general",
      "dimension_x": 2000,
      "dimension_y": 1334,
      "resolution": "2000x1334",
      "ratio": "1.5",
      "file_size": 3732266,
      "file_type": "image/jpeg",
      "created_at": "2021-06-03 00:05:37",
      "colors": [
        "#424153",
        "#000000",
        "#999999",
        "#996633",
        "#fdadc7"
      ],
      "path": "https://w.wallhaven.cc/full/x8/wallhaven-x8zwpz.jpg",
      "thumbs": {
        "large": "https://th.wallhaven.cc/lg/x8/x8zwpz.jpg",
        "original": "https://th.wallhaven.cc/orig/x8/x8zwpz.jpg",
        "small": "https://th.wallhaven.cc/small/x8/x8zwpz.jpg"
      }
    },
    {
      "id": "pkl5y9",
      "url": "https://wallhaven.cc/w/pkl5y9",
      "short_url": "https://whvn.cc/pkl5y9",
      "views": 251,
      "favorites": 7,
      "source": "",
      "purity": "sfw",
      "category": "anime",
      "dimension_x": 1144,
      "dimension_y": 1600,
      "resolution": "1144x1600",
      "ratio": "0.72",
      "file_size": 2725100,
      "file_type": "image/jpeg",
      "created_at": "2021-06-02 23:45:05",
      "colors": [
        "#ffffff",
        "#cc3333",
        "#cccccc",
        "#999999",
        "#424153"
      ],
      "path": "https://w.wallhaven.cc/full/pk/wallhaven-pkl5y9.jpg",
      "thumbs": {
        "large": "https://th.wallhaven.cc/lg/pk/pkl5y9.jpg",
        "original": "https://th.wallhaven.cc/orig/pk/pkl5y9.jpg",
        "small": "https://th.wallhaven.cc/small/pk/pkl5y9.jpg"
      }
    },
    {
      "id": "729mr3",
      "url": "https://wallhaven.cc/w/729mr3",
      "short_url": "https://whvn.cc/729mr3",
      "views": 381,
      "favorites": 1,
      "source": "",
      "purity": "sfw",
      "category": "general",
      "dimension_x": 2560,
      "dimension_y": 1600,
      "resolution": "2560x1600",
      "ratio": "1.6",
      "file_size": 1891181,
      "file_type": "image/png",
      "created_at": "2021-06-02 23:05:11",
      "colors": [
        "#000000",
        "#424153",
        "#333399",
        "#0099cc",
        "#0066cc"
      ],
      "path": "https://w.wallhaven.cc/full/72/wallhaven-729mr3.png",
      "thumbs": {
        "large": "https://th.wallhaven.cc/lg/72/729mr3.jpg",
        "original": "https://th.wallhaven.cc/orig/72/729mr3.jpg",
        "small": "https://th.wallhaven.cc/small/72/729mr3.jpg"
      }
    }
  ],
  "meta": {
    "current_page": 1,
    "last_page": 14661,
    "per_page": 24,
    "total": 351855,
    "query": null,
    "seed": null
  }
}